[
	"aiohttp search",
	"async downloader",
	"async parser",
	"async pdf parse",
	"async pdf report",
	"async scraper",
	"async search",
	"async social search",
	"async",
	"downloader",
	"facebook",
	"google",
	"instagram",
	"parser",
	"pdf parse",
	"pdf report",
	"rambler",
	"scraper",
	"search",
	"searx",
	"snapchat",
	"social downloader",
	"social search",
	"socials",
	"telegram",
	"text summary",
	"tumblr",
	"twitter",
	"vk",
	"web downloader",
	"web scraper",
	"web search",
	"web social search",
	"youtube"
]